-- Merging decision tree log ---
manifest
ADDED from /home/yuvaraj/Desktop/Projects/latest/Tindo/Tindo/instagram/src/main/AndroidManifest.xml:2:1-13:12
INJECTED from /home/yuvaraj/Desktop/Projects/latest/Tindo/Tindo/instagram/src/main/AndroidManifest.xml:2:1-13:12
INJECTED from /home/yuvaraj/Desktop/Projects/latest/Tindo/Tindo/instagram/src/main/AndroidManifest.xml:2:1-13:12
INJECTED from /home/yuvaraj/Desktop/Projects/latest/Tindo/Tindo/instagram/src/main/AndroidManifest.xml:2:1-13:12
INJECTED from /home/yuvaraj/Desktop/Projects/latest/Tindo/Tindo/instagram/src/main/AndroidManifest.xml:2:1-13:12
INJECTED from /home/yuvaraj/Desktop/Projects/latest/Tindo/Tindo/instagram/src/main/AndroidManifest.xml:2:1-13:12
INJECTED from /home/yuvaraj/Desktop/Projects/latest/Tindo/Tindo/instagram/src/main/AndroidManifest.xml:2:1-13:12
	package
		ADDED from /home/yuvaraj/Desktop/Projects/latest/Tindo/Tindo/instagram/src/main/AndroidManifest.xml:3:5-46
		INJECTED from /home/yuvaraj/Desktop/Projects/latest/Tindo/Tindo/instagram/src/main/AndroidManifest.xml
		INJECTED from /home/yuvaraj/Desktop/Projects/latest/Tindo/Tindo/instagram/src/main/AndroidManifest.xml
	android:versionName
		ADDED from /home/yuvaraj/Desktop/Projects/latest/Tindo/Tindo/instagram/src/main/AndroidManifest.xml:5:5-30
		INJECTED from /home/yuvaraj/Desktop/Projects/latest/Tindo/Tindo/instagram/src/main/AndroidManifest.xml
		INJECTED from /home/yuvaraj/Desktop/Projects/latest/Tindo/Tindo/instagram/src/main/AndroidManifest.xml
	xmlns:android
		ADDED from /home/yuvaraj/Desktop/Projects/latest/Tindo/Tindo/instagram/src/main/AndroidManifest.xml:2:11-69
	android:versionCode
		ADDED from /home/yuvaraj/Desktop/Projects/latest/Tindo/Tindo/instagram/src/main/AndroidManifest.xml:4:5-28
		INJECTED from /home/yuvaraj/Desktop/Projects/latest/Tindo/Tindo/instagram/src/main/AndroidManifest.xml
		INJECTED from /home/yuvaraj/Desktop/Projects/latest/Tindo/Tindo/instagram/src/main/AndroidManifest.xml
uses-sdk
ADDED from /home/yuvaraj/Desktop/Projects/latest/Tindo/Tindo/instagram/src/main/AndroidManifest.xml:7:5-9:41
INJECTED from /home/yuvaraj/Desktop/Projects/latest/Tindo/Tindo/instagram/src/main/AndroidManifest.xml:7:5-9:41
INJECTED from /home/yuvaraj/Desktop/Projects/latest/Tindo/Tindo/instagram/src/main/AndroidManifest.xml:7:5-9:41
INJECTED from /home/yuvaraj/Desktop/Projects/latest/Tindo/Tindo/instagram/src/main/AndroidManifest.xml:7:5-9:41
INJECTED from /home/yuvaraj/Desktop/Projects/latest/Tindo/Tindo/instagram/src/main/AndroidManifest.xml:7:5-9:41
	android:targetSdkVersion
		ADDED from /home/yuvaraj/Desktop/Projects/latest/Tindo/Tindo/instagram/src/main/AndroidManifest.xml:9:9-38
		INJECTED from /home/yuvaraj/Desktop/Projects/latest/Tindo/Tindo/instagram/src/main/AndroidManifest.xml
		INJECTED from /home/yuvaraj/Desktop/Projects/latest/Tindo/Tindo/instagram/src/main/AndroidManifest.xml
	android:minSdkVersion
		ADDED from /home/yuvaraj/Desktop/Projects/latest/Tindo/Tindo/instagram/src/main/AndroidManifest.xml:8:9-34
		INJECTED from /home/yuvaraj/Desktop/Projects/latest/Tindo/Tindo/instagram/src/main/AndroidManifest.xml
		INJECTED from /home/yuvaraj/Desktop/Projects/latest/Tindo/Tindo/instagram/src/main/AndroidManifest.xml
uses-permission#android.permission.INTERNET
ADDED from /home/yuvaraj/Desktop/Projects/latest/Tindo/Tindo/instagram/src/main/AndroidManifest.xml:11:5-66
	android:name
		ADDED from /home/yuvaraj/Desktop/Projects/latest/Tindo/Tindo/instagram/src/main/AndroidManifest.xml:11:22-64
